<svg width="24" height="24" viewBox="0 0 24 24" fill="none" xmlns="http://www.w3.org/2000/svg">
<path fill-rule="evenodd" clip-rule="evenodd" d="M16.5 4.5C14.891 4.5 13.008 6.325 12 7.5C10.992 6.325 9.109 4.5 7.5 4.5C4.651 4.5 3 6.722 3 9.55C3 12.6833 6 16 12 19.5C18 16 21 12.75 21 9.75C21 6.922 19.349 4.5 16.5 4.5Z" fill="#377DFF"/>
</svg>
